MVP Prediction: Logistic Regression & Regularization (Week 2)
…
lambda_grid <- grid_regular(penalty(), levels = 50)

set.seed(1234)
lasso_grid <- tune_grid(
  wf %>% add_model(tune_spec),
  resamples = mvp_boot,
  grid = lambda_grid
)

lasso_grid %>%
  collect_metrics()

## # A tibble: 100 x 7
##     penalty .metric .estimator  mean     n std_err .config              
##       <dbl> <chr>   <chr>      <dbl> <int>   <dbl> <chr>                
##  1 1   e-10 rmse    standard   0.244    25 0.00539 Preprocessor1_Model01
##  2 1   e-10 rsq     standard   0.297    25 0.0214  Preprocessor1_Model01
##  3 1.60e-10 rmse    standard   0.244    25 0.00539 Preprocessor1_Model02
##  4 1.60e-10 rsq     standard   0.297    25 0.0214  Preprocessor1_Model02
##  5 2.56e-10 rmse    standard   0.244    25 0.00539 Preprocessor1_Model03
##  6 2.56e-10 rsq     standard   0.297    25 0.0214  Preprocessor1_Model03
##  7 4.09e-10 rmse    standard   0.244    25 0.00539 Preprocessor1_Model04
##  8 4.09e-10 rsq     standard   0.297    25 0.0214  Preprocessor1_Model04
##  9 6.55e-10 rmse    standard   0.244    25 0.00539 Preprocessor1_Model05
## 10 6.55e-10 rsq     standard   0.297    25 0.0214  Preprocessor1_Model05
## #  with 90 more rows
…
lambda_grid <- grid_regular(penalty(), levels = 50)

set.seed(1234)
lasso_grid_std <- tune_grid(
  wf %>% add_model(tune_spec),
  resamples = mvp_boot_std,
  grid = lambda_grid
)

lasso_grid_std %>%
  collect_metrics()

## # A tibble: 100 x 7
##     penalty .metric .estimator  mean     n std_err .config              
##       <dbl> <chr>   <chr>      <dbl> <int>   <dbl> <chr>                
##  1 1   e-10 rmse    standard   0.253    25 0.00556 Preprocessor1_Model01
##  2 1   e-10 rsq     standard   0.293    25 0.0197  Preprocessor1_Model01
##  3 1.60e-10 rmse    standard   0.253    25 0.00556 Preprocessor1_Model02
##  4 1.60e-10 rsq     standard   0.293    25 0.0197  Preprocessor1_Model02
##  5 2.56e-10 rmse    standard   0.253    25 0.00556 Preprocessor1_Model03
##  6 2.56e-10 rsq     standard   0.293    25 0.0197  Preprocessor1_Model03
##  7 4.09e-10 rmse    standard   0.253    25 0.00556 Preprocessor1_Model04
##  8 4.09e-10 rsq     standard   0.293    25 0.0197  Preprocessor1_Model04
##  9 6.55e-10 rmse    standard   0.253    25 0.00556 Preprocessor1_Model05
## 10 6.55e-10 rsq     standard   0.293    25 0.0197  Preprocessor1_Model05
## #  with 90 more rows
…
